{
  "images" : [
    {
      "idiom" : "universal",
      "filename" : "SJOLOON-autumn-photography-background-fall-leaves-wood-photo-backdrops-children-photography-background-photo-studio-viny-props.jpg",
      "scale" : "1x"
    },
    {
      "idiom" : "universal",
      "scale" : "2x"
    },
    {
      "idiom" : "universal",
      "scale" : "3x"
    }
  ],
  "info" : {
    "version" : 1,
    "author" : "xcode"
  }
}